{
    "/js/app.js": "/js/app.js?id=441f8083e64098beb399",
    "/css/app.css": "/css/app.css?id=291236ae2668aba9959e",
    "/css/admin.css": "/css/admin.css?id=67b6e489f28ec891ee36",
    "/js/vendor.js": "/js/vendor.js?id=f3a8b9be10d1dec6a51c",
    "/js/admin.js": "/js/admin.js?id=275d45f1b2d5be7e14ae",
    "/js/manifest.js": "/js/manifest.js?id=0225916a5d4fbc86a881"
}
